ensipc437
ensipc443
ensipc449
ensipc458
ensipc464
ensipc470

ensipc435
ensipc441
ensipc447
ensipc456
ensipc462
ensipc468

ensipc434
ensipc440
ensipc446
ensipc452
ensipc455
ensipc461
ensipc467

ensipc432
ensipc438
ensipc444
ensipc450
ensipc453
ensipc459
ensipc465

ensipc436
ensipc442
ensipc448
ensipc457
ensipc463
ensipc469

ensipc433
ensipc439
ensipc445
ensipc451
ensipc454
ensipc460
ensipc466

ensipc430
ensipc431
